appdirs==1.4.4
astroid==2.12.12
attrs==21.4.0
autopep8==1.6.0
black==22.10.0
black-macchiato==1.3.0
chardet==4.0.0
click==8.0.3
colorama==0.4.4
diff-cover==6.4.4
dill==0.3.6
docstring-to-markdown==0.10
flake8==5.0.4
iniconfig==1.1.1
isort==5.10.1
jedi==0.18.1
Jinja2==3.0.3
lazy-object-proxy==1.7.1
MarkupSafe==2.0.1
mccabe==0.7.0
mypy==0.990
mypy-extensions==0.4.3
packaging==21.3
parso==0.8.3
pathspec==0.9.0
platformdirs==2.4.1
pluggy==1.0.0
py==1.11.0
pycodestyle==2.9.1
pydocstyle==6.1.1
pyflakes==2.5.0
Pygments==2.11.2
pylint==2.15.5
pyparsing==3.0.7
pytest==6.2.5
python-lsp-jsonrpc==1.0.0
python-lsp-server==1.6.0
PyYAML==6.0
regex==2022.1.18
rope==0.22.0
snowballstemmer==2.2.0
sqlfluff==1.4.1
tblib==1.7.0
toml==0.10.2
tomli==1.2.3
tomlkit==0.11.6
tqdm==4.62.3
typing_extensions==4.0.1
ujson==5.1.0
whatthepatch==1.0.2
wrapt==1.13.3
yapf==0.32.0
